…
``` r
library("devtools")
install_github("ropensci/riem")
```

Get available networks
======================

``` r
library("riem")
riem_networks() 
```

    ## # A tibble: 267 x 2
    ##    code     name                     
    ##    <chr>    <chr>                    
    ##  1 AE__ASOS United Arab Emirates ASOS
    ##  2 AF__ASOS Afghanistan ASOS         
    ##  3 AG__ASOS Antigua and Barbuda ASOS 
    ##  4 AI__ASOS Anguilla ASOS            
    ##  5 AK_ASOS  Alaska ASOS              
    ##  6 AL_ASOS  Alabama ASOS             
    ##  7 AL__ASOS Albania ASOS             
    ##  8 AM__ASOS Armenia ASOS             
    ##  9 AN__ASOS Netherlands Antilles ASOS
    ## 10 AO__ASOS Angola ASOS              
    ## # ... with 257 more rows

Get available stations for one network
======================================

``` r
riem_stations(network = "IN__ASOS") 
```

    ## # A tibble: 122 x 4
    ##    id    name                 lon   lat
    ##    <chr> <chr>              <dbl> <dbl>
    ##  1 VEAT  "AGARTALA        "  91.2  23.9
    ##  2 VOAT  Agatti              72.2  10.8
    ##  3 VIAG  "AGRA (IN-AFB)   "  78.0  27.2
    ##  4 VAAH  "AHMADABAD       "  72.6  23.1
    ##  5 VAAK  "AKOLA AIRPORT   "  77.1  20.7
    ##  6 VIAH  "ALIGARH         "  78.1  27.9
    ##  7 VIAL  ALLAHABAD (IN-AF    81.7  25.4
    ##  8 VIAR  "AMRITSAR        "  74.9  31.6
    ##  9 VAOR  Arkonam             79.7  13.1
    ## 10 VOAR  Arkonam             79.7  13.1
    ## # ... with 112 more rows
…
