Accesses Weather Data from the Iowa Environment Mesonet • riem
…
Install the package with:

install.packages("riem")

Or install the development version using devtools with:

library("devtools")
install_github("ropensci/riem")

 Get available networks

library("riem")
riem_networks() 

## # A tibble: 266 × 2
##        code                      name
##       <chr>                     <chr>
## 1  AE__ASOS United Arab Emirates ASOS
## 2  AF__ASOS          Afghanistan ASOS
## 3  AG__ASOS  Antigua and Barbuda ASOS
## 4  AI__ASOS             Anguilla ASOS
## 5   AK_ASOS               Alaska ASOS
## 6   AL_ASOS              Alabama ASOS
## 7  AL__ASOS              Albania ASOS
## 8  AM__ASOS              Armenia ASOS
## 9  AN__ASOS Netherlands Antilles ASOS
## 10 AO__ASOS               Angola ASOS
## # ... with 256 more rows

 Get available stations for one network

riem_stations(network = "IN__ASOS") 

## # A tibble: 117 × 4
##       id                   name      lon      lat
##    <chr>                  <chr>    <dbl>    <dbl>
## 1   VEAT       AGARTALA         91.24045 23.88698
## 2   VIAG       AGRA (IN-AFB)    77.96089 27.15583
## 3   VAAH       AHMADABAD        72.63465 23.07724
## 4   VAAK       AKOLA AIRPORT    77.05863 20.69901
## 5   VIAH       ALIGARH          78.06667 27.88333
## 6   VIAL       ALLAHABAD (IN-AF 81.73387 25.44006
## 7   VIAR       AMRITSAR         74.86667 31.63333
## 8   VAOR                Arkonam 79.69120 13.07120
## 9   VOAR                Arkonam 79.69120 13.07120
## 10  VAAU Aurangabad Chikalthan  75.39810 19.86270
## # ... with 107 more rows
…
