R package riem • riem
…
Install the package with:

install.packages("riem")

Or install the development version using devtools with:

library("devtools")
install_github("ropenscilabs/riem")

Get available networks

library("riem")
riem_networks()
#> # A tibble: 267 x 2
#>    code     name                     
#>    <chr>    <chr>                    
#>  1 AE__ASOS United Arab Emirates ASOS
#>  2 AF__ASOS Afghanistan ASOS         
#>  3 AG__ASOS Antigua and Barbuda ASOS 
#>  4 AI__ASOS Anguilla ASOS            
#>  5 AK_ASOS  Alaska ASOS              
#>  6 AL__ASOS Albania ASOS             
#>  7 AL_ASOS  Alabama ASOS             
#>  8 AM__ASOS Armenia ASOS             
#>  9 AN__ASOS Netherlands Antilles ASOS
#> 10 AO__ASOS Angola ASOS              
#> # … with 257 more rows

Get available stations for one network

riem_stations(network = "IN__ASOS")
#> # A tibble: 96 x 4
#>    id    name                       lon   lat
#>    <chr> <chr>                    <dbl> <dbl>
#>  1 VEAT  "AGARTALA        "        91.2  23.9
#>  2 VOAT  "Agatti"                  72.2  10.8
#>  3 VIAG  "AGRA (IN-AFB)   "        78.0  27.2
#>  4 VAAH  "AHMADABAD       "        72.6  23.1
#>  5 VIAL  "ALLAHABAD (IN-AF"        81.7  25.4
#>  6 VIAR  "AMRITSAR        "        74.9  31.6
#>  7 VAAU  "Aurangabad Chikalthan "  75.4  19.9
#>  8 VEBD  "BAGHDOGRA (IN-AF"        88.3  26.6
#>  9 VOBG  "BANGALORE ARP   "        77.7  12.9
#> 10 VABM  "Belgaum"                 74.6  15.9
#> # … with 86 more rows
…
